               epoch,      train/box_loss,      train/obj_loss,      train/cls_loss,   metrics/precision,      metrics/recall,     metrics/mAP_0.5,metrics/mAP_0.5:0.95,        val/box_loss,        val/obj_loss,        val/cls_loss,               x/lr0,               x/lr1,               x/lr2
                   0,             0.11447,            0.066164,            0.029896,             0.07424,            0.074308,             0.03364,           0.0069642,            0.090036,             0.07531,             0.02609,              0.0018,              0.0018,              0.0838
                   1,            0.091396,            0.069841,            0.024324,              0.6063,             0.37076,             0.12704,            0.030687,            0.087115,            0.066223,             0.02802,           0.0036634,           0.0036634,            0.066663
                   2,            0.089731,            0.049002,            0.020449,             0.32177,             0.58555,             0.30375,            0.071811,            0.076895,            0.045312,            0.018908,           0.0054891,           0.0054891,            0.049489
                   3,            0.088632,            0.047031,            0.019515,            0.087496,             0.17029,                0.12,            0.023834,            0.081924,             0.04661,            0.016645,           0.0072772,           0.0072772,            0.032277
                   4,            0.081217,            0.044608,            0.017431,             0.78689,             0.26268,             0.40755,            0.079505,             0.09132,            0.067167,            0.016201,           0.0090278,           0.0090278,            0.015028
                   5,            0.080104,            0.047477,            0.017881,              0.9529,             0.42935,             0.55169,             0.23901,            0.070055,            0.058679,            0.019953,            0.009505,            0.009505,            0.009505
                   6,            0.066506,            0.054318,            0.016856,             0.51691,             0.55099,             0.45513,             0.10151,            0.064773,            0.063081,            0.018779,            0.009505,            0.009505,            0.009505
                   7,            0.060933,            0.046717,            0.016808,             0.33877,              0.8473,             0.59468,             0.16558,            0.058754,            0.046702,            0.017006,            0.009406,            0.009406,            0.009406
                   8,             0.05889,            0.043616,            0.017397,             0.40477,             0.77516,             0.60235,             0.21577,            0.051165,            0.047792,            0.014726,            0.009307,            0.009307,            0.009307
                   9,             0.04898,             0.04896,            0.014069,             0.46795,             0.72256,             0.57779,             0.23728,            0.046433,            0.046473,            0.012638,            0.009208,            0.009208,            0.009208
                  10,            0.049965,            0.047222,            0.015488,             0.53755,             0.73597,             0.63845,             0.30834,            0.043464,            0.044401,            0.010887,            0.009109,            0.009109,            0.009109
                  11,            0.042479,            0.045664,              0.0153,             0.68853,             0.84847,             0.82883,              0.4099,             0.03808,            0.039489,            0.010077,             0.00901,             0.00901,             0.00901
                  12,            0.039598,            0.041943,            0.013272,             0.55959,               0.914,             0.68282,             0.30963,            0.041519,            0.038705,           0.0098275,            0.008911,            0.008911,            0.008911
                  13,            0.041616,            0.047043,            0.012865,             0.72424,             0.89909,             0.81827,             0.40964,            0.037129,            0.037588,           0.0092404,            0.008812,            0.008812,            0.008812
                  14,            0.041262,            0.044266,            0.013376,             0.78653,             0.69951,             0.76764,             0.35105,            0.041683,            0.035319,           0.0093035,            0.008713,            0.008713,            0.008713
                  15,              0.0411,            0.041465,            0.012313,             0.85403,             0.84373,             0.91167,              0.4649,            0.033242,            0.035806,           0.0065063,            0.008614,            0.008614,            0.008614
                  16,            0.036961,            0.041082,            0.011038,             0.85722,             0.91792,             0.91972,             0.50811,            0.032655,            0.035737,           0.0068582,            0.008515,            0.008515,            0.008515
                  17,            0.035127,            0.041177,            0.010363,              0.7927,             0.83949,             0.85646,             0.44908,            0.033461,            0.035304,           0.0064812,            0.008416,            0.008416,            0.008416
                  18,            0.032794,            0.039664,           0.0097111,             0.80098,             0.77955,             0.81736,             0.39784,            0.037458,            0.039395,           0.0061698,            0.008317,            0.008317,            0.008317
                  19,            0.033087,            0.041551,            0.010706,             0.87089,             0.75123,              0.8584,             0.48417,            0.030142,            0.035288,           0.0056439,            0.008218,            0.008218,            0.008218
                  20,            0.035722,            0.041917,           0.0096584,             0.87856,             0.89594,              0.9154,             0.46791,            0.034208,            0.036876,           0.0057311,            0.008119,            0.008119,            0.008119
                  21,            0.036251,            0.040967,           0.0088892,             0.85834,             0.87696,             0.88526,             0.50888,             0.03057,            0.036328,           0.0066746,             0.00802,             0.00802,             0.00802
                  22,             0.03265,            0.038842,           0.0092579,             0.80738,             0.87301,             0.88258,             0.39531,            0.039411,            0.035093,           0.0064372,            0.007921,            0.007921,            0.007921
                  23,            0.032025,            0.040141,           0.0092965,             0.89004,             0.90247,             0.93521,             0.52139,            0.030755,            0.033644,           0.0059548,            0.007822,            0.007822,            0.007822
                  24,            0.034095,            0.038344,           0.0081322,             0.87985,              0.9207,             0.92954,             0.52432,            0.032025,              0.0347,           0.0045512,            0.007723,            0.007723,            0.007723
                  25,            0.032648,            0.041074,           0.0077762,             0.85343,             0.91131,             0.91698,             0.52788,            0.029867,            0.036012,            0.006023,            0.007624,            0.007624,            0.007624
                  26,            0.031461,            0.040083,           0.0065694,             0.82397,             0.88987,             0.89753,             0.43432,            0.036405,            0.036615,           0.0056838,            0.007525,            0.007525,            0.007525
                  27,            0.030325,            0.040042,           0.0060033,             0.86574,             0.89766,               0.915,             0.52689,            0.027803,            0.033941,           0.0044134,            0.007426,            0.007426,            0.007426
                  28,            0.031401,            0.039242,            0.005603,             0.88604,             0.95805,              0.9524,              0.5771,            0.028259,            0.034413,           0.0034667,            0.007327,            0.007327,            0.007327
                  29,            0.030566,            0.039368,            0.005179,             0.83243,             0.87851,             0.91783,             0.48427,            0.033453,            0.035124,           0.0045088,            0.007228,            0.007228,            0.007228
                  30,            0.031364,            0.037222,           0.0056767,             0.81436,             0.95507,             0.93156,             0.53834,            0.029702,            0.034397,           0.0039719,            0.007129,            0.007129,            0.007129
                  31,            0.029823,            0.038214,           0.0063322,             0.83461,             0.89914,             0.93521,             0.56987,            0.027043,            0.034505,           0.0087463,             0.00703,             0.00703,             0.00703
                  32,            0.028267,            0.035695,           0.0049586,             0.92405,             0.91449,              0.9457,             0.57592,            0.028381,            0.034184,           0.0033582,            0.006931,            0.006931,            0.006931
                  33,            0.032232,            0.038725,           0.0051082,             0.87557,             0.91028,             0.93358,             0.56706,            0.028582,             0.03569,           0.0040347,            0.006832,            0.006832,            0.006832
                  34,            0.027761,            0.037495,           0.0046902,             0.86265,             0.88719,             0.91252,              0.5126,            0.031843,            0.036127,           0.0050242,            0.006733,            0.006733,            0.006733
                  35,            0.027239,            0.038225,           0.0039346,             0.89444,             0.87157,             0.92918,             0.55985,            0.027649,            0.035758,           0.0047141,            0.006634,            0.006634,            0.006634
                  36,            0.027905,            0.036869,           0.0039032,             0.92558,              0.9084,             0.94471,             0.58408,            0.029604,            0.034883,           0.0031429,            0.006535,            0.006535,            0.006535
                  37,            0.028211,            0.035835,           0.0045454,             0.90366,             0.92493,             0.94343,             0.51136,             0.02963,            0.034276,           0.0029638,            0.006436,            0.006436,            0.006436
