1 0.00948661 0.613636 0.0189732 0.177116
0 0.470424 0.220219 0.0703125 0.0768025
0 0.65904 0.665361 0.0569196 0.0924765
1 0.303013 0.430251 0.141741 0.177116
1 0.0351562 0.77116 0.0703125 0.191223
0 0.508929 0.241379 0.0625 0.0909091
1 0.574777 0.644201 0.116071 0.134796
1 0.77846 0.483542 0.132812 0.183386
0 0.432478 0.201411 0.0636161 0.105016
